{
  "menu": {
    "meta": {},
    "data": {
      "menu": [
        {
          "name": "Dashboard",
          "url": "/dashboard",
          "icon": "cil-chart-pie"
        },
        {
          "name": "Resources",
          "url": "/resources",
          "icon": "cil-book",
          "badge": {
            "variant": "danger",
            "text": "NEW"
          }
        },
        {
          "name": "Example",
          "url": "/example",
          "icon": "cil-terminal"
        }
      ]
    }
  },
  "users": [
    {
      "numeroempleado": 99000001,
      "apellidopaterno": "Perez",
      "apellidomaterno": "Lopez",
      "nombre": "Juan",
      "genero": 1,
      "edad": 20
    },
    {
      "numeroempleado": 99000002,
      "apellidopaterno": "Gomez",
      "apellidomaterno": "Benitez",
      "nombre": "Jose",
      "genero": 1,
      "edad": 40
    },
    {
      "numeroempleado": 90235300,
      "apellidopaterno": "Gonzalez",
      "apellidomaterno": "Morales",
      "nombre": "Diana",
      "genero": 2,
      "edad": 26
    }
  ],
  "notifications": [
    {
      "elemId": "notificacion-1",
      "href": "#",
      "titulo": "Titulo de sección",
      "descripcion": "Descripción del contenido. Lorem ipsum dolor sit amet, consectetur.",
      "caption": "Caption",
      "nombreIcono": "regular-avatar"
    },
    {
      "elemId": "notificacion-2",
      "href": "#",
      "titulo": "Titulo de sección 2",
      "descripcion": "Descripción del contenido. Lorem ipsum dolor sit amet, consectetur 2.",
      "caption": "Caption 2",
      "nombreIcono": "regular-avatar"
    },
    {
      "elemId": "notificacion-3",
      "href": "#",
      "titulo": "Titulo de sección 3",
      "descripcion": "Descripción del contenido. Lorem ipsum dolor sit amet, consectetur 3.",
      "caption": "Caption 3",
      "nombreIcono": "regular-avatar"
    }
  ],
  "searchs": [
    {
      "elemId": "resultado-1",
      "href": "#",
      "titulo": "Decisiones y circulares",
      "caption": "Aplicación",
      "nombreIcono": "regular-aplicaciones"
    },
    {
      "elemId": "resultado-2",
      "href": "#",
      "titulo": "Aguinaldo 2021",
      "caption": "Documento",
      "nombreIcono": "regular-pdf"
    },
    {
      "elemId": "resultado-3",
      "href": "#",
      "titulo": "Reparto de utilidades 2021",
      "caption": "Documento",
      "nombreIcono": "regular-pdf"
    },
    {
      "elemId": "resultado-4",
      "href": "#",
      "titulo": "Cuestionario COVID-19",
      "caption": "Enlace",
      "nombreIcono": "regular-enlace"
    }
  ]
}
