{
  "haveMenu": true,
  "appLogo": "assets/img/app-logo.png",
  "footerTitle": "Arquitectura de Sistemas",
  "webApiBaseUrl": "http://localhost:3200",
  "apiMenu": "http://localhost:3200/menu",
  "login": "/login"
}